\relax 
\providecommand\hyper@newdestlabel[2]{}
\providecommand\HyperFirstAtBeginDocument{\AtBeginDocument}
\HyperFirstAtBeginDocument{\ifx\hyper@anchor\@undefined
\global\let\oldcontentsline\contentsline
\gdef\contentsline#1#2#3#4{\oldcontentsline{#1}{#2}{#3}}
\global\let\oldnewlabel\newlabel
\gdef\newlabel#1#2{\newlabelxx{#1}#2}
\gdef\newlabelxx#1#2#3#4#5#6{\oldnewlabel{#1}{{#2}{#3}}}
\AtEndDocument{\ifx\hyper@anchor\@undefined
\let\contentsline\oldcontentsline
\let\newlabel\oldnewlabel
\fi}
\fi}
\global\let\hyper@last\relax 
\gdef\HyperFirstAtBeginDocument#1{#1}
\providecommand*\HyPL@Entry[1]{}
\HyPL@Entry{0<</S/D>>}
\selectlanguage *{english}
\@writefile{toc}{\selectlanguage *{english}}
\@writefile{lof}{\selectlanguage *{english}}
\@writefile{lot}{\selectlanguage *{english}}
\HyPL@Entry{2<</S/r>>}
\HyPL@Entry{4<</S/D>>}
\newlabel{title::doc}{{}{1}{}{section*.2}{}}
\@writefile{toc}{\contentsline {chapter}{\numberline {1}Install and create a jupyter book}{3}{chapter.1}\protected@file@percent }
\@writefile{lof}{\addvspace {10\p@ }}
\@writefile{lot}{\addvspace {10\p@ }}
\newlabel{notebook_0:install-and-create-a-jupyter-book}{{1}{3}{Install and create a jupyter book}{chapter.1}{}}
\newlabel{notebook_0::doc}{{1}{3}{Install and create a jupyter book}{chapter.1}{}}
\@writefile{toc}{\contentsline {section}{\numberline {1.1}Install and configure config and toc file}{3}{section.1.1}\protected@file@percent }
\newlabel{notebook_0:install-and-configure-config-and-toc-file}{{1.1}{3}{Install and configure config and toc file}{section.1.1}{}}
\@writefile{lof}{\contentsline {figure}{\numberline {1.1}{\ignorespaces Format of toc file.}}{3}{figure.1.1}\protected@file@percent }
\newlabel{notebook_0:toc}{{1.1}{3}{Format of toc file}{figure.1.1}{}}
\@writefile{lof}{\contentsline {figure}{\numberline {1.2}{\ignorespaces Format of config file}}{4}{figure.1.2}\protected@file@percent }
\newlabel{notebook_0:config}{{1.2}{4}{Format of config file}{figure.1.2}{}}
\@writefile{toc}{\contentsline {section}{\numberline {1.2}Build the book}{5}{section.1.2}\protected@file@percent }
\newlabel{notebook_0:build-the-book}{{1.2}{5}{Build the book}{section.1.2}{}}
\@writefile{toc}{\contentsline {section}{\numberline {1.3}Create pdf file}{5}{section.1.3}\protected@file@percent }
\newlabel{notebook_0:create-pdf-file}{{1.3}{5}{Create pdf file}{section.1.3}{}}
\@writefile{toc}{\contentsline {chapter}{\numberline {2}Markdown for basic jupyter notebooks}{7}{chapter.2}\protected@file@percent }
\@writefile{lof}{\addvspace {10\p@ }}
\@writefile{lot}{\addvspace {10\p@ }}
\newlabel{notebook_1:markdown-for-basic-jupyter-notebooks}{{2}{7}{Markdown for basic jupyter notebooks}{chapter.2}{}}
\newlabel{notebook_1::doc}{{2}{7}{Markdown for basic jupyter notebooks}{chapter.2}{}}
\@writefile{toc}{\contentsline {section}{\numberline {2.1}Write}{7}{section.2.1}\protected@file@percent }
\newlabel{notebook_1:write}{{2.1}{7}{Write}{section.2.1}{}}
\@writefile{toc}{\contentsline {section}{\numberline {2.2}Insert features}{7}{section.2.2}\protected@file@percent }
\newlabel{notebook_1:insert-features}{{2.2}{7}{Insert features}{section.2.2}{}}
\@writefile{toc}{\contentsline {subsection}{\numberline {2.2.1}Insert hyperlink}{7}{subsection.2.2.1}\protected@file@percent }
\newlabel{notebook_1:insert-hyperlink}{{2.2.1}{7}{Insert hyperlink}{subsection.2.2.1}{}}
\@writefile{toc}{\contentsline {subsection}{\numberline {2.2.2}Insert image}{7}{subsection.2.2.2}\protected@file@percent }
\newlabel{notebook_1:insert-image}{{2.2.2}{7}{Insert image}{subsection.2.2.2}{}}
\@writefile{toc}{\contentsline {subsection}{\numberline {2.2.3}Insert a list}{7}{subsection.2.2.3}\protected@file@percent }
\newlabel{notebook_1:insert-a-list}{{2.2.3}{7}{Insert a list}{subsection.2.2.3}{}}
\@writefile{lof}{\contentsline {figure}{\numberline {2.1}{\ignorespaces El Niño Southern Oscillation.}}{8}{figure.2.1}\protected@file@percent }
\newlabel{notebook_1:enso}{{2.1}{8}{El Niño Southern Oscillation}{figure.2.1}{}}
\@writefile{toc}{\contentsline {subsection}{\numberline {2.2.4}Equations}{8}{subsection.2.2.4}\protected@file@percent }
\newlabel{notebook_1:equations}{{2.2.4}{8}{Equations}{subsection.2.2.4}{}}
\@writefile{toc}{\contentsline {section}{\numberline {2.3}Special text}{8}{section.2.3}\protected@file@percent }
\newlabel{notebook_1:special-text}{{2.3}{8}{Special text}{section.2.3}{}}
\gdef \@abspage@last{12}
